8/27/1883    Krakatoa            8.8
5/18/1980    MountStHelens       7.6
3/13/2009    CostaRica           5.1
1/23/4567    EdgeCase1           6

                                          
1/24/4567    EdgeCase2           6.0
1/25/4567    EdgeCase3           6.1
